br\com\apipaymentstripe\ApiPaymentStripeApplication.class
br\com\apipaymentstripe\AppConfig.class
br\com\apipaymentstripe\services\impl\StripeService.class
dto\PaymentDTO.class
br\com\apipaymentstripe\controllers\PaymentController.class
